<?xml version="1.0" encoding="UTF-8" standalone="no"?>
<!DOCTYPE svg PUBLIC "-//W3C//DTD SVG 1.1//EN" "http://www.w3.org/Graphics/SVG/1.1/DTD/svg11.dtd">
<svg width="100%" height="100%" viewBox="0 0 2778 2778" version="1.1" xmlns="http://www.w3.org/2000/svg" xmlns:xlink="http://www.w3.org/1999/xlink" xml:space="preserve" xmlns:serif="http://www.serif.com/" style="fill-rule:evenodd;clip-rule:evenodd;stroke-linejoin:round;stroke-miterlimit:2;">
    <g transform="matrix(5.55556,0,0,5.55556,5.57579e-13,-1.36309)">
        <g transform="matrix(0.626167,0,0,0.834151,0,0)">
            <g transform="matrix(1.59702,0,0,1.19882,-11.1061,0.294139)">
                <circle cx="256.954" cy="250" r="250" style="fill:rgb(45,50,59);"/>
            </g>
            <g transform="matrix(19.4446,0,0,15.0155,-5993.29,-3040.73)">
                <g transform="matrix(12,0,0,12,313.528,225.711)">
                    <path d="M0.11,-0.5L0.287,-0.122L0.456,-0.5L0.501,-0.5L0.276,0.005L0.242,0.005L0.006,-0.5L0.11,-0.5Z" style="fill:rgb(0,145,255);fill-rule:nonzero;"/>
                </g>
                <g transform="matrix(12,0,0,12,319.633,225.711)">
                    <path d="M0.096,-0.481L0.166,-0.509L0.194,-0.509L0.194,0L0.096,0L0.096,-0.481ZM0.088,-0.691C0.088,-0.699 0.089,-0.707 0.092,-0.713C0.095,-0.72 0.099,-0.726 0.104,-0.731C0.11,-0.737 0.116,-0.741 0.123,-0.744C0.129,-0.747 0.137,-0.748 0.145,-0.748C0.152,-0.748 0.16,-0.747 0.167,-0.744C0.173,-0.741 0.179,-0.737 0.185,-0.731C0.19,-0.726 0.194,-0.72 0.197,-0.713C0.2,-0.707 0.201,-0.699 0.201,-0.691C0.201,-0.684 0.2,-0.676 0.197,-0.669C0.194,-0.663 0.19,-0.657 0.185,-0.651C0.179,-0.646 0.173,-0.642 0.167,-0.639C0.16,-0.636 0.152,-0.635 0.145,-0.635C0.137,-0.635 0.129,-0.636 0.123,-0.639C0.116,-0.642 0.11,-0.646 0.104,-0.651C0.099,-0.657 0.095,-0.663 0.092,-0.669C0.089,-0.676 0.088,-0.684 0.088,-0.691Z" style="fill:rgb(0,145,255);fill-rule:nonzero;"/>
                </g>
                <g transform="matrix(12,0,0,12,323.102,225.711)">
                    <path d="M0.159,-0.509L0.188,-0.509L0.188,-0.408C0.218,-0.442 0.249,-0.467 0.282,-0.484C0.314,-0.501 0.347,-0.509 0.381,-0.509C0.398,-0.509 0.415,-0.505 0.43,-0.498C0.445,-0.49 0.458,-0.479 0.47,-0.465C0.481,-0.452 0.49,-0.436 0.497,-0.417C0.503,-0.399 0.506,-0.379 0.506,-0.358L0.506,0L0.407,0L0.407,-0.341C0.407,-0.358 0.405,-0.372 0.401,-0.385C0.397,-0.398 0.392,-0.408 0.385,-0.417C0.378,-0.425 0.369,-0.431 0.36,-0.436C0.35,-0.44 0.339,-0.442 0.328,-0.442C0.317,-0.442 0.306,-0.441 0.294,-0.437C0.283,-0.433 0.271,-0.428 0.259,-0.422C0.246,-0.416 0.234,-0.408 0.222,-0.399C0.21,-0.391 0.199,-0.381 0.188,-0.37L0.188,0L0.088,0L0.088,-0.481L0.159,-0.509Z" style="fill:rgb(0,145,255);fill-rule:nonzero;"/>
                </g>
                <g transform="matrix(12,0,0,12,330.233,225.711)">
                    <path d="M0.416,-0.359C0.412,-0.372 0.408,-0.386 0.401,-0.399C0.395,-0.412 0.387,-0.424 0.378,-0.435C0.368,-0.446 0.357,-0.455 0.344,-0.462C0.331,-0.469 0.315,-0.472 0.298,-0.472C0.275,-0.472 0.255,-0.468 0.237,-0.458C0.219,-0.449 0.204,-0.437 0.192,-0.421C0.18,-0.406 0.17,-0.388 0.164,-0.367C0.157,-0.346 0.154,-0.324 0.154,-0.3C0.154,-0.268 0.158,-0.238 0.166,-0.21C0.175,-0.181 0.186,-0.156 0.201,-0.135C0.217,-0.113 0.235,-0.096 0.256,-0.084C0.277,-0.071 0.301,-0.065 0.328,-0.065C0.351,-0.065 0.371,-0.069 0.388,-0.076C0.405,-0.083 0.42,-0.093 0.432,-0.105C0.445,-0.118 0.456,-0.132 0.465,-0.149C0.474,-0.165 0.482,-0.182 0.489,-0.201L0.519,-0.188C0.511,-0.157 0.499,-0.129 0.485,-0.104C0.471,-0.08 0.454,-0.059 0.434,-0.042C0.415,-0.025 0.393,-0.012 0.369,-0.003C0.345,0.006 0.318,0.011 0.29,0.011C0.257,0.011 0.226,0.004 0.198,-0.009C0.169,-0.021 0.144,-0.039 0.123,-0.062C0.102,-0.084 0.085,-0.11 0.073,-0.14C0.06,-0.17 0.054,-0.202 0.054,-0.236C0.054,-0.261 0.057,-0.286 0.063,-0.309C0.07,-0.332 0.078,-0.354 0.09,-0.374C0.101,-0.394 0.114,-0.413 0.13,-0.429C0.146,-0.446 0.163,-0.46 0.183,-0.472C0.202,-0.484 0.222,-0.493 0.244,-0.5C0.266,-0.506 0.289,-0.509 0.313,-0.509C0.333,-0.509 0.352,-0.507 0.37,-0.502C0.388,-0.498 0.405,-0.491 0.42,-0.483C0.436,-0.475 0.449,-0.465 0.461,-0.452C0.473,-0.44 0.482,-0.427 0.488,-0.412L0.416,-0.359Z" style="fill:rgb(0,145,255);fill-rule:nonzero;"/>
                </g>
                <g transform="matrix(12,0,0,12,337.094,225.711)">
                    <path d="M0.089,-0.418L0.089,-0.519L0.189,-0.519L0.189,-0.418L0.089,-0.418ZM0.089,0L0.089,-0.1L0.189,-0.1L0.189,0C0.189,0.037 0.182,0.066 0.169,0.089C0.156,0.112 0.136,0.129 0.107,0.142L0.083,0.104C0.102,0.096 0.115,0.084 0.124,0.068C0.133,0.052 0.138,0.03 0.139,0L0.089,0Z" style="fill:rgb(135,0,255);fill-rule:nonzero;"/>
                </g>
                <g transform="matrix(12,0,0,12,340.428,225.711)">
                    <path d="M0.124,0.21L0.061,0.21C0.158,0.054 0.207,-0.102 0.207,-0.259C0.207,-0.32 0.2,-0.381 0.186,-0.441C0.174,-0.49 0.159,-0.537 0.139,-0.582C0.126,-0.611 0.1,-0.66 0.061,-0.728L0.124,-0.728C0.185,-0.646 0.23,-0.564 0.259,-0.482C0.284,-0.411 0.297,-0.337 0.297,-0.259C0.297,-0.171 0.28,-0.086 0.246,-0.004C0.213,0.078 0.172,0.149 0.124,0.21Z" style="fill:rgb(232,0,255);fill-rule:nonzero;"/>
                </g>
            </g>
        </g>
    </g>
</svg>
